<?xml version="1.0" encoding="UTF-8" standalone="no"?>
<!-- Created with Inkscape (http://www.inkscape.org/) -->

<svg
   width="100mm"
   height="100mm"
   viewBox="0 0 377.95277 377.95277"
   version="1.1"
   id="svg5"
   inkscape:version="1.2.2 (b0a8486541, 2022-12-01)"
   sodipodi:docname="gayathri-2.svg"
   xmlns:inkscape="http://www.inkscape.org/namespaces/inkscape"
   xmlns:sodipodi="http://sodipodi.sourceforge.net/DTD/sodipodi-0.dtd"
   xmlns:xlink="http://www.w3.org/1999/xlink"
   xmlns="http://www.w3.org/2000/svg"
   xmlns:svg="http://www.w3.org/2000/svg">
  <sodipodi:namedview
     id="namedview7"
     pagecolor="#ffffff"
     bordercolor="#666666"
     borderopacity="1.0"
     inkscape:showpageshadow="2"
     inkscape:pageopacity="0.0"
     inkscape:pagecheckerboard="0"
     inkscape:deskcolor="#d1d1d1"
     inkscape:document-units="mm"
     showgrid="false"
     inkscape:zoom="1.6876126"
     inkscape:cx="318.20099"
     inkscape:cy="215.98559"
     inkscape:window-width="1920"
     inkscape:window-height="1012"
     inkscape:window-x="0"
     inkscape:window-y="0"
     inkscape:window-maximized="1"
     inkscape:current-layer="layer1"
     showguides="true">
    <inkscape:grid
       type="xygrid"
       id="grid7446"
       originx="6.509884e-08"
       originy="4.9352647e-06" />
  </sodipodi:namedview>
  <defs
     id="defs2">
    <linearGradient
       inkscape:collect="always"
       id="linearGradient4235">
      <stop
         style="stop-color:#fffbeb;stop-opacity:1;"
         offset="0"
         id="stop4231" />
      <stop
         style="stop-color:#fef3c7;stop-opacity:1;"
         offset="1"
         id="stop4233" />
    </linearGradient>
    <rect
       x="53.631779"
       y="124.02349"
       width="408.94232"
       height="120.6715"
       id="rect3451" />
    <linearGradient
       inkscape:collect="always"
       xlink:href="#linearGradient4235"
       id="linearGradient4237"
       x1="44.297009"
       y1="40.269894"
       x2="746.9151"
       y2="541.0246"
       gradientUnits="userSpaceOnUse"
       gradientTransform="matrix(0.4761905,0,0,0.67567569,-0.49999998,162.24374)" />
    <rect
       x="53.631779"
       y="124.02349"
       width="304.06042"
       height="256.2868"
       id="rect3451-3" />
    <rect
       x="53.631779"
       y="124.02349"
       width="408.94232"
       height="120.6715"
       id="rect7243" />
    <rect
       x="53.631779"
       y="124.02349"
       width="408.94232"
       height="120.6715"
       id="rect7247" />
    <rect
       x="53.631779"
       y="124.02349"
       width="408.94232"
       height="120.6715"
       id="rect7247-5" />
  </defs>
  <g
     inkscape:label="Layer 1"
     inkscape:groupmode="layer"
     id="layer1"
     transform="translate(0.5,-162.24374)">
    <rect
       style="mix-blend-mode:normal;fill:url(#linearGradient4237);fill-opacity:1;fill-rule:evenodd;stroke:none;stroke-width:0.567231;stroke-linecap:square;stroke-linejoin:round"
       id="rect234"
       width="377.95276"
       height="377.95276"
       x="-0.5"
       y="162.24374" />
    <text
       xml:space="preserve"
       id="text3449-6"
       style="font-style:normal;font-variant:normal;font-weight:normal;font-stretch:normal;font-size:13.3333px;line-height:1.5;font-family:Gayathri;-inkscape-font-specification:'Gayathri, @opsz=48.0';font-variant-ligatures:normal;font-variant-caps:normal;font-variant-numeric:normal;font-variant-east-asian:normal;white-space:pre;shape-inside:url(#rect3451-3);display:inline;fill:#451a03;fill-opacity:1;stroke:none;stroke-width:1.00157;stroke-dasharray:none;font-variation-settings:'opsz' 48"
       transform="translate(-2.5764106,125.02487)"><tspan
         x="53.630859"
         y="135.35674"
         id="tspan16034">എനിക്കു വിശ്വാസം ഇല്ലാഞ്ഞിട്ടല്ല. 
</tspan><tspan
         x="53.630859"
         y="155.3567"
         id="tspan16038"><tspan
           dx="0 0 0 0 0 0 0 0 0 0 0 0 0 0 0 0 0 -6.3866997 0 6.3867054"
           id="tspan16036">ഞാന്‍ ഒരു നിമിഷം പോലും മറന്നിട്ടില്ലായിരുന്നു. 
</tspan></tspan><tspan
         x="53.630859"
         y="175.35665"
         id="tspan16042"><tspan
           dx="0 -6.3867025 0 6.3867044 0 0 0 0 0 0 0 0 0 0 0 -6.3866997 0 6.3866968"
           id="tspan16040">ഓരോ രാത്രിയും ഓരോ പകലും ഞാന്‍ ഓര്‍ത്തു കരയും. 
</tspan></tspan><tspan
         x="53.630859"
         y="195.3566"
         id="tspan16046"><tspan
           dx="0 0 -8.4244576 0 8.4244585 0 0 0 0 0 0 0 0 0 0 0 0 0 0 0 0 0 0 0 0 -6.3866887 0 6.3866978"
           id="tspan16044">യാതൊരപകടവും ഒരു സുഖക്കേടുപോലും 
</tspan></tspan><tspan
         x="53.630859"
         y="215.35656"
         id="tspan16048">വരുത്താതിരിക്കാന്‍ ഞാന്‍ പ്രാര്‍ത്ഥിക്കും; 
</tspan><tspan
         x="53.630859"
         y="235.35651"
         id="tspan16050">എന്നും എന്നും പ്രാര്‍ത്ഥിക്കും
</tspan><tspan
         x="53.630859"
         y="255.35647"
         id="tspan16052">
</tspan><tspan
         x="53.630859"
         y="275.35641"
         id="tspan16054">- ബഷീര്‍ (ബാല്യകാലസഖി)</tspan></text>
  </g>
</svg>
