<?xml version="1.0" encoding="UTF-8" standalone="no"?>
<svg width="150mm" height="100mm" viewBox="0 0 150 100" version="1.1" xmlns="http://www.w3.org/2000/svg"
   xmlns:svg="http://www.w3.org/2000/svg" id="malini-2">

   <style>
      #malini-2 {
         --base-color: oklch(30% 0.138 265.52);
         --stop-color-1: oklch(from var(--base-color) l c h);
         --stop-color-2: oklch(from var(--base-color) 37% c h);
         --text-color:oklch(from var(--base-color) 95% c h);
         border: 1px solid var(--base-color);
         border-radius: 1rem;

         text {
            fill: var(--text-color);
            font-family: 'Malini', sans-serif;
            font-optical-sizing: auto;
            font-variation-settings: "wght" 400, "wdth" 100, "slnt" 0, "opsz" 18;
            font-weight: 400;
            font-size: 25%;
         }

         tspan {
            /* text-anchor: middle; */
         }

         .font-info {
            font-size: 66%;
            font-weight: 300;
         }
      }
   </style>
   <defs id="defs2">
      <linearGradient id="linearGradient-malini-2">
         <stop style="stop-color:var(--stop-color-1);" offset="0%" />
         <stop style="stop-color:var(--stop-color-2);" offset="100%" />
      </linearGradient>
   </defs>
   <g id="layer1">
      <rect style="fill:url(#linearGradient-malini-2);" width="150" height="100" x="0" y="0" />
      <text x="50%" y="0" class="small">
         <tspan x="15%" dy="25">എനിക്കു വിശ്വാസം ഇല്ലാഞ്ഞിട്ടല്ല.</tspan>
         <tspan x="15%" dy="5">ഞാന്‍ ഒരു നിമിഷം പോലും മറന്നിട്ടില്ലായിരുന്നു. </tspan>
         <tspan x="15%" dy="5">ഓരോ രാത്രിയും ഓരോ പകലും ഞാന്‍ ഓര്‍ത്തു കരയും. </tspan>
         <tspan x="15%" dy="5">യാതൊരപകടവും ഒരു സുഖക്കേടുപോലും</tspan>
         <tspan x="15%" dy="5">വരുത്താതിരിക്കാന്‍ ഞാന്‍ പ്രാര്‍ത്ഥിക്കും; </tspan>
         <tspan x="15%" dy="5">എന്നും എന്നും പ്രാര്‍ത്ഥിക്കും</tspan>
         <tspan x="15%" dy="15">— ബഷീര്‍ (ബാല്യകാലസഖി) </tspan>
         <tspan x="80%" y="95" class="font-info">Malini Text</tspan>
      </text>
   </g>
</svg>