<?xml version="1.0" encoding="UTF-8" standalone="no"?>
<svg width="150mm" height="100mm" viewBox="0 0 150 100" version="1.1" xmlns="http://www.w3.org/1500/svg"
   xmlns:svg="http://www.w3.org/2000/svg" id="malini-7">

   <style>
      #malini-7 {
         --base-color: oklch(25.73% 0.086 281.29);
         --stop-color-1: oklch(from var(--base-color) l c h);
         --stop-color-2: oklch(from var(--base-color) 37% c h);
         --text-color: oklch(from var(--base-color) 95% c h);
         border: 1px solid var(--base-color);
         border-radius: 1rem;

         text {
            fill: var(--text-color);
            font-family: 'Malini', sans-serif;
            font-optical-sizing: auto;
            font-variation-settings: "wght"300, "wdth"87, "slnt"0;
            font-size: 40%;
         }

         tspan {
            /* text-anchor: middle; */
         }

         .font-info {
            font-size: 50%;
            font-weight: 300;
         }
      }
   </style>
   <defs id="defs2">
      <radialGradient id="moonGradient" cx="50%" cy="50%" r="30%" fx="50%" fy="50%">
         <stop offset="0%" stop-color="white" stop-opacity="1" />
         <stop offset="70%" stop-color="white" stop-opacity="1" />
         <stop offset="100%" stop-color="white" stop-opacity="0" />
      </radialGradient>

      <filter id="moonGlow">
         <feGaussianBlur in="SourceGraphic" stdDeviation="5" result="blur" />
         <feMerge>
            <feMergeNode in="blur" />
            <feMergeNode in="SourceGraphic" />
         </feMerge>
      </filter>
      <linearGradient id="linearGradient-malini-7">
         <stop style="stop-color:var(--stop-color-1);" offset="0%" />
         <stop style="stop-color:var(--stop-color-2);" offset="100%" />
      </linearGradient>
   </defs>
   <g id="layer1">
      <rect style="fill:url(#linearGradient-malini-7);" width="150" height="100" x="0" y="0" />
      <circle cx="90%" cy="15%" r="30" fill="url(#moonGradient)" filter="url(#moonGlow)" />
      <text x="50%" y="0" class="small">
         <tspan x="8%" y="15">ഇന്ദുലേഖ കൺ‌തുറന്നു</tspan>
         <tspan x="8%" dy="8">ഇന്നു രാവും സാന്ദ്രമായ്</tspan>
         <tspan x="8%" dy="8"> ഇന്ദ്രജാലം മെല്ലെയുണർത്തി </tspan>
         <tspan x="8%" dy="8"> മന്മഥന്റെ തേരിലേറ്റി</tspan>
         <tspan x="8%" dy="8">എവിടെ സ്വർഗ്ഗകന്യകൾ </tspan>
         <tspan x="8%" dy="8">എവിടെ സ്വർണ്ണച്ചാമരങ്ങൾ </tspan>
         <tspan x="8%" dy="8"> ആയിരം ജ്വാലാമുഖങ്ങളായ്</tspan>
         <tspan x="8%" dy="8"> ധ്യാനമുണരും തുടി മുഴങ്ങി</tspan>
         <tspan x="8%" dy="12">— കൈതപ്രം(ഒരു വടക്കൻ വീരഗാഥ) </tspan>
         <tspan x="75%" y="95%" class="font-info">Malini SemiCondensed Light</tspan>
      </text>
   </g>
</svg>